<?xml version="1.0" encoding="UTF-8"?>
<Project>
   <description></description>
   <name>DailyProdDataDriven</name>
   <tag></tag>
   <UUID>3c1884bd-62a0-4c08-9537-926521c053c0</UUID>
   <migratedVersion>5.7.0</migratedVersion>
   <pageLoadTimeout>0</pageLoadTimeout>
   <sourceContent>
      <sourceFolderList>
         <sourceFolderConfiguration>
            <url>Include/scripts/groovy</url>
         </sourceFolderConfiguration>
      </sourceFolderList>
      <systemFolderList>
         <systemFolderConfiguration>
            <url>Include/scripts/groovy</url>
         </systemFolderConfiguration>
         <systemFolderConfiguration>
            <url>Include/features</url>
         </systemFolderConfiguration>
      </systemFolderList>
   </sourceContent>
   <type>GENERIC</type>
</Project>
